{
    "signing": {
      "default": {
        "expiry": "87600h"
      },
      "profiles": {
        "devops": {
          "usages": ["signing", "key encipherment", "server auth", "client auth"],
          "expiry": "87600h"
        }
      }
    }
}